Categories:System
License:Apache-2.0
Author Name:Tibor Kaputa
Author Email:hello@simplemobiletools.com
Web Site:https://simplemobiletools.github.io/
Source Code:https://github.com/SimpleMobileTools/Simple-Calendar
Issue Tracker:https://github.com/SimpleMobileTools/Simple-Calendar/issues
Changelog:https://github.com/SimpleMobileTools/Simple-Calendar/blob/HEAD/CHANGELOG.md
Donate:https://simplemobiletools.github.io/donate
Bitcoin:19Hc8A7sWGud8sP19VXDC5a5j28UyJfpyJ
Litecoin:LYACbHTKaM9ZubKQGxJ4NRyVy1gHUuztRP

Auto Name:Calendar

Repo Type:git
Repo:https://github.com/SimpleMobileTools/Simple-Calendar

Build:1.6,7
    commit=7c920510354f9ce7a3e6ddc13b39960b50d09811
    subdir=app
    gradle=yes

Build:1.8,8
    commit=1.8
    subdir=app
    gradle=yes

Build:1.9,9
    commit=1.9
    subdir=app
    gradle=yes

Build:1.11,11
    commit=1.11
    subdir=app
    gradle=yes

Build:1.12,12
    commit=1.12
    subdir=app
    gradle=yes

Build:1.14,14
    commit=1.14
    subdir=app
    gradle=yes

Build:1.15,15
    commit=1.15
    subdir=app
    gradle=yes

Build:1.16,16
    commit=1.16
    subdir=app
    gradle=yes

Build:1.17,17
    commit=1.17
    subdir=app
    gradle=yes

Build:1.18,18
    commit=1.18
    subdir=app
    gradle=yes

Build:1.19,19
    commit=1.19
    subdir=app
    gradle=yes

Build:1.20,20
    commit=1.20
    subdir=app
    gradle=yes

Build:1.21,21
    commit=1.21
    subdir=app
    gradle=yes

Build:1.22,22
    commit=1.22
    subdir=app
    gradle=yes

Build:1.23,23
    commit=1.23
    subdir=app
    gradle=yes

Build:1.24,24
    commit=1.24
    subdir=app
    gradle=yes

Build:1.25,25
    commit=1.25
    subdir=app
    gradle=yes

Build:1.26,26
    commit=1.26
    subdir=app
    gradle=yes

Build:1.27,27
    commit=1.27
    subdir=app
    gradle=yes

Build:1.28,28
    commit=1.28
    subdir=app
    gradle=yes

Build:1.31,31
    commit=1.31
    subdir=app
    gradle=yes

Build:1.32,32
    commit=1.32
    subdir=app
    gradle=yes

Build:1.33,33
    commit=1.33
    subdir=app
    gradle=yes

Build:1.34,34
    commit=1.34
    subdir=app
    gradle=yes

Build:1.36,36
    commit=1.36
    subdir=app
    gradle=yes

Build:1.37,37
    commit=1.37
    subdir=app
    gradle=yes

Build:1.39,39
    commit=1.39
    subdir=app
    gradle=yes

Build:1.40,40
    commit=1.40
    subdir=app
    gradle=yes

Build:1.41,41
    commit=1.41
    subdir=app
    gradle=yes

Build:1.42,42
    commit=1.42
    subdir=app
    gradle=yes

Build:2.0.0,44
    commit=2.0.0
    subdir=app
    gradle=yes

Build:2.0.2,46
    commit=2.0.2
    subdir=app
    gradle=yes

Build:2.0.3,47
    commit=2.0.3
    subdir=app
    gradle=yes

Build:2.1.0,48
    commit=2.1.0
    subdir=app
    gradle=yes

Build:2.1.1,49
    commit=2.1.1
    subdir=app
    gradle=yes

Build:2.1.2,50
    commit=2.1.2
    subdir=app
    gradle=yes

Build:2.1.3,51
    commit=2.1.3
    subdir=app
    gradle=yes

Build:2.1.4,52
    disable=play
    commit=2.1.4
    subdir=app
    gradle=yes

Build:2.1.6,54
    disable=play
    commit=2.1.6
    subdir=app
    gradle=yes

Build:2.1.8,56
    disable=play
    commit=2.1.8
    subdir=app
    gradle=yes

Build:2.1.9,57
    commit=2.1.9
    subdir=app
    gradle=yes
    prebuild=sed -i -e '/google-api/d' -e '/play-services/d' build.gradle

Build:2.1.10,58
    commit=2.1.10
    subdir=app
    gradle=yes
    prebuild=sed -i -e '/google-api/d' -e '/play-services/d' build.gradle

Build:2.2.0,59
    commit=2.2.0
    subdir=app
    gradle=yes
    prebuild=sed -i -e '/google-api/d' -e '/play-services/d' build.gradle

Build:2.2.1,60
    commit=2.2.1
    subdir=app
    gradle=yes
    prebuild=sed -i -e '/google-api/d' -e '/play-services/d' build.gradle

Build:2.2.2,61
    commit=2.2.2
    subdir=app
    gradle=yes
    prebuild=sed -i -e '/google-api/d' -e '/play-services/d' build.gradle

Build:2.2.4,63
    commit=2.2.4
    subdir=app
    gradle=yes
    prebuild=sed -i -e '/google-api/d' -e '/play-services/d' build.gradle

Build:2.2.6,65
    commit=2.2.6
    subdir=app
    gradle=yes
    prebuild=sed -i -e '/google-api/d' -e '/play-services/d' build.gradle

Build:2.2.7,66
    commit=2.2.7
    subdir=app
    gradle=yes
    prebuild=sed -i -e '/google-api/d' -e '/play-services/d' build.gradle

Build:2.3.1,68
    commit=2.3.1
    subdir=app
    gradle=yes
    prebuild=sed -i -e '/google-api/d' -e '/play-services/d' build.gradle

Build:2.3.3,70
    commit=2.3.3
    subdir=app
    gradle=yes
    prebuild=sed -i -e '/google-api/d' -e '/play-services/d' build.gradle

Build:2.3.4,71
    commit=2.3.4
    subdir=app
    gradle=yes
    prebuild=sed -i -e '/google-api/d' -e '/play-services/d' build.gradle

Build:2.4.2,75
    commit=2.4.2
    subdir=app
    gradle=yes
    prebuild=sed -i -e '/google-api/d' -e '/play-services/d' build.gradle

Build:2.4.3,76
    commit=2.4.3
    subdir=app
    gradle=yes
    prebuild=sed -i -e '/google-api/d' -e '/play-services/d' build.gradle

Build:2.5.0,77
    commit=2.5.0
    subdir=app
    gradle=yes
    prebuild=sed -i -e '/google-api/d' -e '/play-services/d' build.gradle

Build:2.5.1,78
    commit=2.5.1
    subdir=app
    gradle=yes
    prebuild=sed -i -e '/google-api/d' -e '/play-services/d' build.gradle

Build:2.5.2,79
    commit=2.5.2
    subdir=app
    gradle=yes
    prebuild=sed -i -e '/google-api/d' -e '/play-services/d' build.gradle

Build:2.5.3,80
    commit=2.5.3
    subdir=app
    gradle=yes
    prebuild=sed -i -e '/google-api/d' -e '/play-services/d' build.gradle

Build:2.5.6,83
    commit=2.5.6
    subdir=app
    gradle=yes
    prebuild=sed -i -e '/google-api/d' -e '/play-services/d' build.gradle

Build:2.5.7,84
    commit=2.5.7
    subdir=app
    gradle=yes
    prebuild=sed -i -e '/google-api/d' -e '/play-services/d' build.gradle

Build:2.6.1,87
    disable=links against com.google.android.gms:play-services-auth
    commit=2.6.1
    subdir=app
    gradle=yes

Build:2.7.4,92
    commit=2.7.4
    subdir=app
    gradle=yes

Build:2.7.5,93
    commit=2.7.5
    subdir=app
    gradle=yes

Build:2.7.6,94
    commit=2.7.6
    subdir=app
    gradle=yes

Build:2.8.1,96
    commit=2.8.1
    subdir=app
    gradle=yes

Build:2.8.2,97
    commit=2.8.2
    subdir=app
    gradle=yes

Build:2.9.0,98
    commit=2.9.0
    subdir=app
    gradle=yes

Build:2.9.1,99
    commit=2.9.1
    subdir=app
    gradle=yes

Build:2.9.2,100
    commit=2.9.2
    subdir=app
    gradle=yes

Build:2.10.1,102
    disable=Could not find com.android.tools.build:gradle:3.0.0
    commit=2.10.1
    subdir=app
    gradle=yes

Build:2.11.0,103
    disable=Could not find com.android.tools.build:gradle:3.0.0
    commit=2.11.0
    subdir=app
    gradle=yes

Build:2.12.0,104
    commit=2.12.0
    subdir=app
    gradle=yes

Build:3.0.1,106
    commit=3.0.1
    subdir=app
    gradle=yes

Build:3.1.0,107
    commit=3.1.0
    subdir=app
    gradle=yes

Build:3.2.1,109
    commit=3.2.1
    subdir=app
    gradle=yes

Build:3.2.2,110
    commit=3.2.2
    subdir=app
    gradle=yes

Build:3.2.3,111
    commit=3.2.3
    subdir=app
    gradle=yes

Build:3.2.4,112
    commit=3.2.4
    subdir=app
    gradle=yes

Build:3.3.0,113
    commit=3.3.0
    subdir=app
    gradle=yes

Build:3.3.2,115
    commit=3.3.2
    subdir=app
    gradle=yes

Build:3.4.0,116
    commit=3.4.0
    subdir=app
    gradle=yes

Build:3.4.1,117
    commit=3.4.1
    subdir=app
    gradle=yes

Build:3.4.2,118
    commit=3.4.2
    subdir=app
    gradle=yes

Build:4.0.0,119
    commit=4.0.0
    subdir=app
    gradle=yes

Build:4.0.3,122
    commit=4.0.3
    subdir=app
    gradle=yes

Build:4.0.4,123
    commit=4.0.4
    subdir=app
    gradle=yes

Build:4.1.0,124
    commit=4.1.0
    subdir=app
    gradle=yes

Build:4.1.1,125
    commit=4.1.1
    subdir=app
    gradle=yes

Build:4.1.2,126
    commit=4.1.2
    subdir=app
    gradle=yes

Build:4.1.3,127
    commit=4.1.3
    subdir=app
    gradle=yes

Auto Update Mode:Version %v
Update Check Mode:Tags
Current Version:4.1.3
Current Version Code:127
